…
### 3.2 Minor flex with tidyverse

One of the advantages of the tidyverse is many of the commands allow you to dispense with having to use `[]` notation to get the columns you want to work with, instead being able to just type the name of the column.

See below for an example of how to calculate the mean of multiple columns with tidyverse


```r
school2 %>%
  rowwise() %>% mutate(avg_score = mean(c(math_score, reading_score, writing_score)))
```

```
## # A tibble: 1,000 × 9
## # Rowwise: 
##    gender race_ethnicity parental_level_of_educat…¹ lunch test_preparation_cou…²
##    <chr>  <chr>          <chr>                      <chr> <chr>                 
##  1 female group B        bachelor's degree          stan… none                  
##  2 female group C        some college               stan… completed             
##  3 female group B        master's degree            stan… none                  
##  4 male   group A        associate's degree         free… none                  
##  5 male   group C        some college               stan… none                  
##  6 female group B        associate's degree         stan… none                  
##  7 female group B        some college               stan… completed             
##  8 male   group B        some college               free… none                  
##  9 male   group D        high school                free… completed             
## 10 female group B        high school                free… none                  
## # ℹ 990 more rows
## # ℹ abbreviated names: ¹​parental_level_of_education, ²​test_preparation_course
## # ℹ 4 more variables: math_score <dbl>, reading_score <dbl>,
## #   writing_score <dbl>, avg_score <dbl>
```
…
